<svg width="100" height="100" xmlns="http://www.w3.org/2000/svg">
 <g id="Layer_1">
  <title>Layer 1</title>
  <line stroke-linecap="undefined" stroke-linejoin="undefined" id="svg_1" y2="73.42857" x2="70.85714" y1="8.57143" x1="13.14286" stroke="#000" fill="none"/>
  <line stroke-linecap="undefined" stroke-linejoin="undefined" id="svg_2" y2="73.43436" x2="90.85714" y1="10" x1="90.85714" stroke="#000" fill="none"/>
  <line stroke-linecap="undefined" stroke-linejoin="undefined" id="svg_3" y2="90" x2="85.28558" y1="90" x1="12" stroke="#000" fill="none"/>
 </g>

</svg>